<?xml version="1.0" standalone="no"?>
<!DOCTYPE svg PUBLIC "-//W3C//DTD SVG 1.1//EN" "http://www.w3.org/Graphics/SVG/1.1/DTD/svg11.dtd">
<svg xmlns="http://www.w3.org/2000/svg">
<metadata>Copyright (C) 2020 by original authors @ fontello.com</metadata>
<defs>
<font id="fontello" horiz-adv-x="1000" >
<font-face font-family="fontello" font-weight="400" font-stretch="normal" units-per-em="1000" ascent="850" descent="-150" />
<missing-glyph horiz-adv-x="1000" />
<glyph glyph-name="facebook" unicode="&#xe800;" d="M550 850l-137 0c-154 0-254-97-254-246v-114h-137c-12 0-22-9-22-20v-164c0-12 10-21 22-21h137v-415c0-11 10-20 22-20h180c12 0 21 9 21 20v415h161c12 0 22 9 22 21l0 164c0 5-2 11-6 14-4 4-10 6-16 6h-161v97c0 46 12 69 76 69l92 0c12 0 21 10 21 21v152c0 12-9 21-21 21z" horiz-adv-x="571" />

<glyph glyph-name="instagram" unicode="&#xe801;" d="M930 780c20-20 36-44 45-70 9-22 19-54 21-114 3-64 4-83 4-246 0-163-1-182-4-246-2-60-12-92-21-114-20-53-62-95-115-115-22-9-54-19-114-21-64-3-83-4-246-4-163 0-182 1-246 4-60 2-92 12-114 21-26 9-50 25-70 45-20 20-36 44-45 70-9 22-19 54-21 114-3 64-4 83-4 246 0 163 1 182 4 246 2 60 12 92 21 114 9 26 25 50 45 70 20 20 44 36 70 45 22 9 54 19 114 22 64 2 83 3 246 3 163 0 182-1 247-4 59-2 91-12 113-21 26-9 50-25 70-45z m-221-152c0-40 32-73 73-73 40 0 73 33 73 73 0 41-33 73-73 73-41 0-73-32-73-73z m-207-486c114 0 206 92 206 207 0 114-92 206-206 206-114 0-207-92-207-206 0-115 93-207 207-207z" horiz-adv-x="1000" />

<glyph glyph-name="odnoklassniki" unicode="&#xe802;" d="M239 146c-74 8-140 27-197 74-7 5-15 11-21 18-25 25-28 54-8 83 17 26 45 32 75 18 5-3 11-6 16-10 106-77 252-79 359-4 10 9 21 16 35 19 25 7 49-3 62-26 16-27 16-53-4-74-29-31-64-54-104-70-37-16-78-23-118-28 6-7 9-11 13-15 54-57 109-115 164-173 19-20 23-45 12-68-11-25-36-41-61-39-15 1-27 9-38 20-41 44-84 87-124 132-12 13-18 10-28-1-42-45-84-90-126-134-19-19-42-23-64-12-24 12-39 38-38 63 1 17 9 30 20 42 55 57 109 114 163 171 3 4 7 8 12 14z m45 198c-132 0-239 115-239 254 1 140 109 252 242 252 133 0 240-115 239-256 0-139-109-251-242-250z m120 253c-1 69-53 124-118 124-66 0-118-56-118-125 1-69 53-123 119-123 65 0 117 55 117 124z" horiz-adv-x="571" />

<glyph glyph-name="vk" unicode="&#xe803;" d="M1734-41c-4 7-33 71-173 201-147 136-127 114 49 349 108 143 151 231 137 268-12 36-92 26-92 26l-262-1c0 0-20 3-34-6-15-9-24-28-24-28 0 0-41-111-97-205-117-199-164-210-183-198-45 29-34 116-34 178 0 193 30 273-56 294-29 7-50 11-123 12-94 1-174 0-219-22-30-15-53-48-39-49 18-3 57-11 78-39 27-37 26-120 26-120 0 0 16-227-36-255-36-19-84 20-189 201-53 92-94 195-94 195 0 0-8 19-21 29-17 12-41 16-41 16l-250-1c0 0-37-2-51-18-13-14-1-44-1-44 0 0 196-458 417-689 204-212 434-198 434-198h105c0 0 32 3 48 21 14 16 14 46 14 46 0 0-2 140 63 161 64 20 147-136 234-196 66-45 116-35 116-35l234 3c0 0 122 7 64 104z" horiz-adv-x="1750" />

<glyph glyph-name="vector" unicode="&#xe804;" d="M1341 754c-38 70-80 83-164 88-83 6-294 8-477 8-183 0-394-2-477-8-84-5-125-18-164-88-39-70-59-191-59-404 0 0 0 0 0 0 0 0 0 0 0 0v0c0-212 20-334 59-403 39-70 80-83 164-89 83-5 294-8 477-8 183 0 394 3 478 8 83 6 125 19 163 89 39 69 59 191 59 403 0 0 0 0 0 0 0 0 0 0 0 0 0 213-20 334-59 404z m-816-677v546l438-273-438-273z" horiz-adv-x="1400" />

<glyph glyph-name="calendar" unicode="&#xe805;" d="M235 789l0 61h-59v-61h-176v-182h1000v182h-176l0 61h-58l0-61-531 0z m531 0v-122h58v122l-58 0z m-531 0v-122h-59l0 122h59z m765-939h-1000v696h1000v-696z m-155 594h-104v-107h104v107z m0-182h-104v-108h104v108z m-196 182h-103v-107h103v107z m0-182h-103v-108h103v108z m-195 182h-103v-107h103v107z m0-182h-103v-108h103v108z m0-183h-103v-107h103v107z m-195 183h-104v-108h104v108z m0-290v107h-104v-107h104z" horiz-adv-x="1000" />

<glyph glyph-name="plane_down" unicode="&#xe806;" d="M1150 147c-2-9-5-17-9-25-12-25-39-38-65-32l-993 189-1 0c-10 3-19 8-27 15-4 4-8 8-10 13-8 14-10 30-6 46l17 76-21 99c-4 20 2 40 16 54 15 15 35 21 55 16 11-2 22-8 30-17l129-139 257-47-114 376c-5 14-1 29 9 40 10 10 25 15 39 12 61-14 114-53 144-108l203-373 250-48 1 0c22-5 43-16 60-32 33-30 46-73 36-115z m-1148-206h1180l0-91h-1180v91z" horiz-adv-x="1182" />

<glyph glyph-name="plane_up" unicode="&#xe807;" d="M1296 542c2-9 4-19 4-29 1-30-19-57-47-65l-1063-327-1 0c-11-3-22-3-33 0-6 2-12 4-18 8-14 9-25 24-29 41l-22 83-72 85c-14 17-19 40-12 61 7 22 24 38 45 44 13 3 26 3 38-1l197-69 274 87-304 306c-11 11-16 28-12 44 4 15 17 27 32 32 67 18 138 6 195-32l390-258 267 83 1 0c25 6 51 7 75 0 47-13 83-47 95-93z m-1294-592h1298l0-100h-1298v100z" horiz-adv-x="1300" />

<glyph glyph-name="email" unicode="&#xe808;" d="M1250 562v-509c0-108-85-197-192-203l-11 0h-844c-108 0-197 85-203 192l0 11v509l603-316c14-7 30-7 44 0l603 316z m-1047 288h844c105 0 192-80 202-183l-624-327-624 327c10 99 91 177 191 183l11 0h844-844z" horiz-adv-x="1250" />

<glyph glyph-name="user" unicode="&#xe809;" d="M344 267h212c46 0 90-10 132-29 42-19 80-46 112-81 32-35 57-76 74-122 17-45 26-136 26-185h-900c0 49 9 140 26 185 17 46 43 87 75 122 31 35 69 62 111 81 42 19 87 29 132 29z m106 83c136 0 246 112 246 250 0 138-110 250-246 250-136 0-245-112-245-250 0-138 109-250 245-250z" horiz-adv-x="900" />

<glyph glyph-name="phone" unicode="&#xe80a;" d="M613 244l-96-56-149 258 97 56c8 5 16 11 22 19 6 8 10 16 12 26 3 9 4 19 2 29-1 9-4 19-9 27l-92 161c-5 8-13 15-23 17-9 3-20 1-28-3l-130-75c-11-6-19-15-26-25-6-10-10-22-11-34-10-147 24-293 100-420 72-128 181-232 314-296 11-6 23-8 35-8 12 1 24 4 34 10l130 75c8 5 14 13 17 22 2 10 1 20-4 28l-93 162c-10 17-26 29-45 34-19 5-39 3-57-7z" horiz-adv-x="1000" />

<glyph glyph-name="close" unicode="&#xe80b;" d="M500 262l331-331 88 88-331 331 331 331-88 88-331-331-331 331-88-88 331-331-331-331 88-88 331 331z" horiz-adv-x="1000" />

<glyph glyph-name="link" unicode="&#xe818;" d="M761 850c-64 0-124-25-169-70l-187-186c14 2 29 4 43 4 40 0 80-8 116-22l116 116c22 21 50 33 81 33 63 0 114-51 114-114 0-31-12-59-33-81l-209-209c-44-43-119-43-162 0l-88-88c45-46 105-70 169-70 64 0 124 24 169 70l209 209c45 45 70 105 70 169 0 132-107 239-239 239v0z m-326-727l-115-114c-21-22-50-34-81-34-63 0-114 51-114 114 0 31 12 60 34 81l208 209c44 43 119 43 162 0l88 89c-90 90-248 90-338-1l-209-208c-45-46-70-106-70-170 0-132 107-239 239-239 64 0 124 25 170 70l183 184c-13-2-26-4-40-4-41 0-80 8-117 23z" horiz-adv-x="1000" />

<glyph glyph-name="youtube-play" unicode="&#xf16a;" d="M397 221l270 139-270 141v-280z m103 481q94 0 181-3t128-5l41-2q0 0 9-1t13-2 13-2 16-5 16-7 17-11 16-15q4-3 9-10t16-33 15-56q4-36 7-76t3-64v-98q1-81-10-162-4-30-14-55t-18-35l-8-9q-7-8-16-15t-17-10-16-7-16-5-13-2-13-2-9-1q-140-11-350-11-115 2-201 4t-111 4l-28 3-20 2q-20 3-30 5t-29 12-31 23q-4 3-9 10t-16 33-15 56q-4 36-7 76t-3 64v98q-1 81 10 162 4 31 14 55t18 35l8 9q8 9 16 15t17 11 16 7 16 5 13 2 13 2 9 1q140 10 350 10z" horiz-adv-x="1000" />
</font>
</defs>
</svg>