<svg width="12" height="13" viewBox="0 0 12 13" fill="none" xmlns="http://www.w3.org/2000/svg">
<path d="M8 6.15789V2.05263L6 0L4 2.05263V3.42105H0V13H12V6.15789H8ZM2.66667 11.6316H1.33333V10.2632H2.66667V11.6316ZM2.66667 8.89474H1.33333V7.52632H2.66667V8.89474ZM2.66667 6.15789H1.33333V4.78947H2.66667V6.15789ZM6.66667 11.6316H5.33333V10.2632H6.66667V11.6316ZM6.66667 8.89474H5.33333V7.52632H6.66667V8.89474ZM6.66667 6.15789H5.33333V4.78947H6.66667V6.15789ZM6.66667 3.42105H5.33333V2.05263H6.66667V3.42105ZM10.6667 11.6316H9.33333V10.2632H10.6667V11.6316ZM10.6667 8.89474H9.33333V7.52632H10.6667V8.89474Z" fill="#616B7B"/>
</svg>
