<svg width="134" height="40" viewBox="0 0 134 40" fill="none" xmlns="http://www.w3.org/2000/svg">
<rect width="134" height="40" fill="#252525"/>
<path fill-rule="evenodd" clip-rule="evenodd" d="M79.8557 23.033H79.7927C79.3695 22.5462 78.5622 22.1058 77.5395 22.1058C75.3933 22.1058 73.4309 23.9358 73.4309 26.282C73.4309 28.6147 75.3933 30.43 77.5395 30.43C78.5622 30.43 79.3695 29.986 79.7927 29.4844H79.8557V30.0814C79.8557 31.6728 78.9803 32.5278 77.5684 32.5278C76.4172 32.5278 75.7031 31.7205 75.4084 31.0416L73.7697 31.7058C74.2421 32.8092 75.4928 34.167 77.5684 34.167C79.7776 34.167 81.6417 32.9046 81.6417 29.833V22.359H79.8557V23.033ZM47.7923 23.3814V25.1502H52.1414C52.0142 26.1386 51.6742 26.8652 51.1527 27.3716C50.5179 27.9832 49.5292 28.6621 47.7923 28.6621C45.1159 28.6621 43.0201 26.5642 43.0201 23.9649C43.0201 21.3655 45.1159 19.2676 47.7923 19.2676C49.2395 19.2676 50.2925 19.8168 51.0696 20.5288L52.353 19.2823C51.2661 18.2743 49.8202 17.5 47.7923 17.5C44.1221 17.5 41.0376 20.4003 41.0376 23.9649C41.0376 27.5294 44.1221 30.4297 47.7923 30.4297C49.7761 30.4297 51.2661 29.7985 52.4374 28.6144C53.6377 27.4486 54.0118 25.8095 54.0118 24.486C54.0118 24.0749 53.9765 23.697 53.9136 23.3814H47.7923ZM58.9567 22.1055C56.585 22.1055 54.6567 23.8548 54.6567 26.2682C54.6567 28.6621 56.585 30.4297 58.9567 30.4297C61.3271 30.4297 63.2566 28.6621 63.2566 26.2682C63.2566 23.8548 61.3271 22.1055 58.9567 22.1055ZM64.0388 26.2682C64.0388 23.8548 65.9721 22.1055 68.3387 22.1055C70.7104 22.1055 72.6437 23.8548 72.6437 26.2682C72.6437 28.6621 70.7104 30.4297 68.3387 30.4297C65.9721 30.4297 64.0388 28.6621 64.0388 26.2682ZM65.923 26.2682C65.923 27.7495 67.0402 28.7905 68.3387 28.7905C69.6373 28.7905 70.7595 27.7495 70.7595 26.2682C70.7595 24.7673 69.6373 23.7447 68.3387 23.7447C67.0402 23.7447 65.923 24.7673 65.923 26.2682ZM56.5359 26.2682C56.5359 27.7495 57.6568 28.7905 58.9566 28.7905C60.2552 28.7905 61.3724 27.7495 61.3724 26.2682C61.3724 24.7673 60.2552 23.7447 58.9566 23.7447C57.6568 23.7447 56.5359 24.7673 56.5359 26.2682ZM89.7743 22.1055C91.9986 22.1055 93.0906 23.8217 93.4445 24.7526L93.6423 25.226L87.9103 27.5294C88.3486 28.3661 89.0325 28.7905 89.9859 28.7905C90.9457 28.7905 91.6094 28.3318 92.0969 27.6395L93.5579 28.585C93.0906 29.2639 91.9545 30.4297 89.9859 30.4297C87.5513 30.4297 85.7351 28.5997 85.7351 26.2682C85.7351 23.7924 87.5702 22.1055 89.7743 22.1055ZM87.6004 26.1387C87.5513 24.5338 88.8839 23.7118 89.8386 23.7118C90.5867 23.7118 91.2215 24.0751 91.4331 24.5949L87.6004 26.1387ZM84.8258 30.1768H82.9415V17.9443H84.8258V30.1768ZM75.3151 26.2817C75.3151 27.7349 76.4021 28.7905 77.7006 28.7905C78.9803 28.7905 79.9892 27.7349 79.9892 26.2817C79.9892 24.815 78.9803 23.7447 77.7006 23.7447C76.4021 23.7447 75.3151 24.815 75.3151 26.2817ZM102.266 17.9443H97.7596V30.1768H99.6388V25.5419H102.266C104.353 25.5419 106.4 24.0752 106.4 21.7425C106.4 19.411 104.348 17.9443 102.266 17.9443ZM99.6389 23.8398H102.315C103.718 23.8398 104.519 22.6888 104.519 21.742C104.519 20.7768 103.718 19.6453 102.315 19.6453H99.6389V23.8398ZM113.932 22.0823C112.574 22.0823 111.162 22.6646 110.581 23.9551L112.249 24.634C112.608 23.9551 113.268 23.7349 113.966 23.7349C114.941 23.7349 115.929 24.3037 115.944 25.308V25.4365C115.604 25.2456 114.876 24.9631 113.981 24.9631C112.185 24.9631 110.355 25.9233 110.355 27.7154C110.355 29.3545 111.826 30.4102 113.48 30.4102C114.744 30.4102 115.442 29.856 115.88 29.2114H115.944V30.1569H117.759V25.4646C117.759 23.2958 116.092 22.0823 113.932 22.0823ZM112.234 27.7496C112.234 28.4896 113.09 28.7856 113.705 28.7856C114.793 28.7856 115.797 27.9832 115.944 26.8505C115.442 26.6168 115.054 26.4395 114.226 26.4395C113.302 26.4395 112.234 26.8028 112.234 27.7496ZM124.372 22.3503L122.212 27.6531H122.148L119.914 22.3503H117.888L121.243 29.7607L119.329 33.8843H121.292L126.463 22.3503H124.372ZM109.317 30.1768H107.433V17.9443H109.317V30.1768Z" fill="white"/>
<path d="M10.0686 7.95519C9.77339 8.2627 9.60254 8.74144 9.60254 9.36144L9.60254 31.4764C9.60254 32.0964 9.77339 32.5752 10.0686 32.8827L10.1415 32.9502L22.5959 20.5627V20.2702L10.1415 7.8827L10.0686 7.95519Z" fill="url(#paint0_linear)"/>
<path d="M26.4924 24.2773L22.1919 20.1461V19.8536L26.4976 15.7223L26.594 15.7761L31.6931 18.5598C33.1483 19.3498 33.1483 20.6498 31.6931 21.4448L26.594 24.2236L26.4924 24.2773V24.2773Z" fill="url(#paint1_linear)"/>
<path d="M26.4221 24.0956L22.1772 19.9999L9.6499 32.0883C10.116 32.5611 10.876 32.618 11.7403 32.1453L26.4221 24.0956Z" fill="url(#paint2_linear)"/>
<path d="M26.4221 15.9042L11.7403 7.85455C10.876 7.38667 10.116 7.44364 9.6499 7.91636L22.1772 20L26.4221 15.9042Z" fill="url(#paint3_linear)"/>
<path fill-rule="evenodd" clip-rule="evenodd" d="M40.2002 12.7607V10.4161H40.8497C40.9181 10.2621 40.9816 10.1056 41.0402 9.94671C41.0988 9.78783 41.1534 9.6081 41.2038 9.40749C41.2543 9.20689 41.3015 8.9766 41.3455 8.71662C41.3894 8.45664 41.4309 8.14852 41.47 7.79225C41.5156 7.41673 41.5514 7.04682 41.5774 6.68253C41.6035 6.31824 41.6238 5.97722 41.6385 5.65946C41.6531 5.34171 41.6629 5.05445 41.6678 4.79768C41.6727 4.54091 41.6767 4.33068 41.68 4.16699H46.1927V10.4161H47.0034V12.7607H46.1048V11.2442H41.0988V12.7607H40.2002ZM42.5786 4.99512C42.5786 5.45409 42.5599 5.91146 42.5224 6.36723C42.485 6.823 42.4402 7.28197 42.3881 7.74415C42.3523 8.11005 42.3157 8.42058 42.2782 8.67575C42.2408 8.93091 42.2017 9.15719 42.161 9.35458C42.1203 9.55197 42.0747 9.73331 42.0243 9.89861C41.9738 10.0639 41.916 10.2364 41.8509 10.4162H45.2061V4.99512H42.5786ZM51.3451 8.65869C51.3451 8.37303 51.3125 8.11065 51.2474 7.87153C51.1823 7.63241 51.0846 7.4262 50.9544 7.25288C50.8242 7.07956 50.6638 6.94395 50.4733 6.84606C50.2829 6.74816 50.0623 6.69922 49.8116 6.69922C49.5609 6.69922 49.3411 6.74816 49.1523 6.84606C48.9634 6.94395 48.8039 7.07956 48.6736 7.25288C48.5434 7.4262 48.4457 7.63241 48.3806 7.87153C48.3155 8.11065 48.2829 8.37303 48.2829 8.65869C48.2829 8.94756 48.3155 9.21315 48.3806 9.45548C48.4457 9.6978 48.5434 9.90563 48.6736 10.0789C48.8039 10.2523 48.9634 10.3879 49.1523 10.4858C49.3411 10.5837 49.5609 10.6326 49.8116 10.6326C50.0623 10.6326 50.2829 10.5837 50.4733 10.4858C50.6638 10.3879 50.8242 10.2523 50.9544 10.0789C51.0846 9.90563 51.1823 9.6978 51.2474 9.45548C51.3125 9.21315 51.3451 8.94756 51.3451 8.65869ZM52.2437 8.65849C52.2437 9.08216 52.1884 9.4633 52.0777 9.80192C51.9669 10.1405 51.8074 10.4286 51.599 10.6661C51.3907 10.9036 51.1359 11.0858 50.8347 11.2125C50.5335 11.3393 50.1925 11.4027 49.8115 11.4027C49.4306 11.4027 49.0904 11.3393 48.7908 11.2125C48.4913 11.0858 48.2373 10.9036 48.0289 10.6661C47.8206 10.4286 47.661 10.1405 47.5503 9.80192C47.4396 9.4633 47.3843 9.08216 47.3843 8.65849C47.3843 8.24124 47.4396 7.86411 47.5503 7.5271C47.661 7.19009 47.8206 6.90283 48.0289 6.66532C48.2373 6.42781 48.4913 6.24566 48.7908 6.11888C49.0904 5.9921 49.4306 5.92871 49.8115 5.92871C50.1925 5.92871 50.5335 5.9921 50.8347 6.11888C51.1359 6.24566 51.3907 6.42781 51.599 6.66532C51.8074 6.90283 51.9669 7.19009 52.0777 7.5271C52.1884 7.86411 52.2437 8.24124 52.2437 8.65849ZM57.3669 9.4288C57.3538 9.55397 57.3286 9.69038 57.2912 9.83802C57.2537 9.98567 57.1992 10.1325 57.1276 10.2785C57.0559 10.4246 56.964 10.565 56.8516 10.6998C56.7393 10.8346 56.6025 10.9542 56.4414 11.0585C56.2802 11.1628 56.0906 11.2462 55.8724 11.3088C55.6543 11.3714 55.4052 11.4027 55.1252 11.4027C54.9722 11.4027 54.811 11.3843 54.6417 11.3473C54.4724 11.3104 54.3071 11.2487 54.146 11.162C53.9848 11.0753 53.8318 10.9638 53.6869 10.8274C53.542 10.691 53.415 10.5217 53.306 10.3195C53.1969 10.1173 53.1098 9.88216 53.0447 9.61415C52.9795 9.34615 52.947 9.03883 52.947 8.69219C52.947 8.26531 53.0089 7.88096 53.1326 7.53914C53.2563 7.19731 53.4215 6.90765 53.6283 6.67013C53.835 6.43262 54.076 6.24967 54.3511 6.12129C54.6262 5.9929 54.9152 5.92871 55.218 5.92871C55.4915 5.92871 55.7332 5.9576 55.9432 6.01537C56.1532 6.07314 56.3364 6.15017 56.4927 6.24646C56.6489 6.34275 56.7808 6.45429 56.8883 6.58107C56.9957 6.70785 57.0828 6.84104 57.1495 6.98066C57.2163 7.12028 57.2667 7.26231 57.3009 7.40674C57.3351 7.55117 57.3571 7.68919 57.3669 7.82078H56.5268C56.4813 7.47093 56.3584 7.19651 56.1581 6.99751C55.9579 6.79852 55.6771 6.69902 55.3157 6.69902C55.0682 6.69902 54.8525 6.74877 54.6685 6.84827C54.4846 6.94776 54.3316 7.08658 54.2095 7.26471C54.0874 7.44285 53.9962 7.65789 53.936 7.90985C53.8757 8.1618 53.8456 8.43863 53.8456 8.74034C53.8456 9.08056 53.8782 9.37343 53.9433 9.61897C54.0084 9.86451 54.1012 10.0667 54.2217 10.2256C54.3421 10.3845 54.4895 10.5016 54.6637 10.577C54.8379 10.6525 55.0356 10.6902 55.257 10.6902C55.4133 10.6902 55.5615 10.6621 55.7015 10.6059C55.8415 10.5498 55.9668 10.4679 56.0775 10.3604C56.1882 10.2529 56.2827 10.1205 56.3608 9.9632C56.4389 9.80593 56.4943 9.6278 56.5268 9.4288H57.3669ZM59.6477 6.8582H57.8455V6.08789H62.3484V6.8582H60.5463V11.2441H59.6477V6.8582ZM62.7098 6.08789H63.6963L65.0882 10.2861H65.1078L66.4997 6.08789H67.4862L65.4887 11.4512C65.3878 11.7208 65.295 11.9551 65.2103 12.1541C65.1257 12.3531 65.0427 12.5224 64.9613 12.662C64.8799 12.8016 64.7977 12.9147 64.7146 13.0014C64.6316 13.0881 64.5404 13.1563 64.4411 13.206C64.3418 13.2558 64.2311 13.2895 64.109 13.3071C63.9869 13.3248 63.8461 13.3336 63.6866 13.3336C63.5563 13.3336 63.4546 13.328 63.3813 13.3168C63.3081 13.3055 63.2438 13.2919 63.1884 13.2758V12.4766C63.247 12.4959 63.3235 12.5151 63.418 12.5344C63.5124 12.5537 63.6117 12.5633 63.7159 12.5633C63.8819 12.5633 64.0162 12.524 64.1188 12.4453C64.2214 12.3667 64.3003 12.2552 64.3557 12.1107L64.6487 11.3838L62.7098 6.08789ZM71.5984 6.8582H69.1565V11.2441H68.2578V6.08789H72.5019V11.2441H71.5984V6.8582ZM73.8206 6.08789H74.7192V8.16772H77.1611V6.08789H78.0646V11.2441H77.1611V8.93803H74.7192V11.2441H73.8206V6.08789ZM83.0364 8.65869C83.0364 8.37303 83.0038 8.11065 82.9387 7.87153C82.8736 7.63241 82.7759 7.4262 82.6456 7.25288C82.5154 7.07956 82.3551 6.94395 82.1646 6.84606C81.9741 6.74816 81.7535 6.69922 81.5028 6.69922C81.2521 6.69922 81.0323 6.74816 80.8435 6.84606C80.6547 6.94395 80.4951 7.07956 80.3649 7.25288C80.2347 7.4262 80.137 7.63241 80.0719 7.87153C80.0067 8.11065 79.9742 8.37303 79.9742 8.65869C79.9742 8.94756 80.0067 9.21315 80.0719 9.45548C80.137 9.6978 80.2347 9.90563 80.3649 10.0789C80.4951 10.2523 80.6547 10.3879 80.8435 10.4858C81.0323 10.5837 81.2521 10.6326 81.5028 10.6326C81.7535 10.6326 81.9741 10.5837 82.1646 10.4858C82.3551 10.3879 82.5154 10.2523 82.6456 10.0789C82.7759 9.90563 82.8736 9.6978 82.9387 9.45548C83.0038 9.21315 83.0364 8.94756 83.0364 8.65869ZM83.935 8.65849C83.935 9.08216 83.8796 9.4633 83.7689 9.80192C83.6582 10.1405 83.4987 10.4286 83.2903 10.6661C83.0819 10.9036 82.8271 11.0858 82.526 11.2125C82.2248 11.3393 81.8837 11.4027 81.5028 11.4027C81.1219 11.4027 80.7816 11.3393 80.4821 11.2125C80.1825 11.0858 79.9286 10.9036 79.7202 10.6661C79.5118 10.4286 79.3523 10.1405 79.2416 9.80192C79.1309 9.4633 79.0755 9.08216 79.0755 8.65849C79.0755 8.24124 79.1309 7.86411 79.2416 7.5271C79.3523 7.19009 79.5118 6.90283 79.7202 6.66532C79.9286 6.42781 80.1825 6.24566 80.4821 6.11888C80.7816 5.9921 81.1219 5.92871 81.5028 5.92871C81.8837 5.92871 82.2248 5.9921 82.526 6.11888C82.8271 6.24566 83.0819 6.42781 83.2903 6.66532C83.4987 6.90283 83.6582 7.19009 83.7689 7.5271C83.8796 7.86411 83.935 8.24124 83.935 8.65849ZM87.7248 6.08789H89.9519C90.59 6.08789 91.0678 6.20504 91.3853 6.43934C91.7027 6.67365 91.8614 7.01386 91.8614 7.46C91.8614 7.69751 91.8028 7.89811 91.6856 8.06181C91.5684 8.2255 91.4138 8.36993 91.2217 8.4951C91.4984 8.59781 91.7182 8.74545 91.881 8.93803C92.0438 9.13061 92.1252 9.37935 92.1252 9.68427C92.1252 9.92499 92.0845 10.1416 92.0031 10.3342C91.9217 10.5268 91.7979 10.6905 91.6319 10.8253C91.4658 10.9601 91.255 11.0636 90.9994 11.1358C90.7439 11.208 90.4419 11.2441 90.0935 11.2441H87.7248V6.08789ZM88.6235 10.5366H89.991C90.2286 10.5366 90.4264 10.5181 90.5843 10.4812C90.7422 10.4443 90.8684 10.3906 90.9628 10.3199C91.0573 10.2493 91.124 10.1643 91.1631 10.0648C91.2021 9.96528 91.2217 9.85294 91.2217 9.72777C91.2217 9.60259 91.2021 9.48946 91.1631 9.38835C91.124 9.28725 91.0573 9.20219 90.9628 9.13319C90.8684 9.06418 90.7422 9.01122 90.5843 8.97431C90.4264 8.9374 90.2286 8.91895 89.991 8.91895H88.6235V10.5366ZM88.6235 8.26862H89.9812C90.284 8.26862 90.5233 8.20925 90.6991 8.09049C90.8749 7.97173 90.9628 7.78718 90.9628 7.53683C90.9628 7.39561 90.9384 7.27766 90.8896 7.18297C90.8407 7.08829 90.7756 7.01206 90.6942 6.95429C90.6128 6.89651 90.5208 6.85559 90.4183 6.83152C90.3157 6.80745 90.2107 6.79541 90.1033 6.79541H88.6235V8.26862Z" fill="white"/>
<defs>
<linearGradient id="paint0_linear" x1="17.1407" y1="47.9764" x2="-2.78792" y2="42.6488" gradientUnits="userSpaceOnUse">
<stop stop-color="#00A0FF"/>
<stop offset="0.0066" stop-color="#00A1FF"/>
<stop offset="0.2601" stop-color="#00BEFF"/>
<stop offset="0.5122" stop-color="#00D2FF"/>
<stop offset="0.7604" stop-color="#00DFFF"/>
<stop offset="1" stop-color="#00E3FF"/>
</linearGradient>
<linearGradient id="paint1_linear" x1="33.588" y1="30.1822" x2="8.36942" y2="30.1822" gradientUnits="userSpaceOnUse">
<stop stop-color="#FFE000"/>
<stop offset="0.4087" stop-color="#FFBD00"/>
<stop offset="0.7754" stop-color="#FFA500"/>
<stop offset="1" stop-color="#FF9C00"/>
</linearGradient>
<linearGradient id="paint2_linear" x1="9.27598" y1="26.2779" x2="-5.90094" y2="-0.201382" gradientUnits="userSpaceOnUse">
<stop stop-color="#FF3A44"/>
<stop offset="1" stop-color="#C31162"/>
</linearGradient>
<linearGradient id="paint3_linear" x1="-0.131395" y1="35.4267" x2="6.64186" y2="23.6017" gradientUnits="userSpaceOnUse">
<stop stop-color="#32A071"/>
<stop offset="0.0685" stop-color="#2DA771"/>
<stop offset="0.4762" stop-color="#15CF74"/>
<stop offset="0.8009" stop-color="#06E775"/>
<stop offset="1" stop-color="#00F076"/>
</linearGradient>
</defs>
</svg>
