<svg width="30" height="44" viewBox="0 0 30 44" fill="none" xmlns="http://www.w3.org/2000/svg">
<ellipse opacity="0.25" cx="15.2998" cy="37.5" rx="10" ry="6.5" fill="#B79985"/>
<ellipse cx="15.2998" cy="37" rx="3" ry="2" fill="#1D2C43"/>
<rect width="30" height="30" fill="#1D2C43"/>
<path fill-rule="evenodd" clip-rule="evenodd" d="M25 4L14.9941 22.5833H10.2934L5 24L6.28039 21.6006L14.834 15.7098L24.7866 4H25Z" fill="#B79985"/>
<path d="M17.2144 29.8789L15.111 33.5222L13.0076 29.8789L17.2144 29.8789Z" fill="#1D2C43"/>
</svg>
