<svg width="200" height="37" viewBox="0 0 200 37" fill="none" xmlns="http://www.w3.org/2000/svg">
<g clip-path="url(#clip0)">
<path d="M167.054 15.3946C163.036 13.292 159.707 13.1309 158.152 13.1309H152.73L152.441 12.6153H158.817C159.258 12.6153 164.543 12.5428 167.655 13.3806C171.545 14.4279 174.231 16.474 174.761 16.8204C175.282 17.1588 182.38 22.2661 182.38 22.2661C182.38 22.2661 181.185 23.4906 180.022 23.4906C178.915 23.4906 177.728 22.6367 177.728 22.6367C177.728 22.6367 173.927 19.8897 173.349 19.4788C172.756 19.076 169.756 16.8285 167.054 15.3946Z" fill="white"/>
<path d="M166.765 19.4224C169.452 21.2108 171.023 22.5158 171.545 22.8944C172.058 23.265 174.44 24.9809 174.44 24.9809C174.44 24.9809 175.539 25.8428 176.878 25.8428C177.896 25.8428 179.156 24.6506 179.156 24.6506C179.156 24.6506 173.461 20.6147 172.94 20.2522C172.427 19.8816 170.598 18.4396 167.19 17.5374C164.343 16.7801 160.293 16.8043 160.02 16.8043H154.831L155.136 17.3279C155.136 17.3279 159.05 17.336 159.346 17.336C159.972 17.336 163.934 17.5293 166.757 19.4144V19.4224H166.765ZM167.639 11.1733C171.096 13.0342 174.512 15.612 175.154 16.0793C175.795 16.5465 180.992 20.2763 180.992 20.2763C180.992 20.2763 182.203 21.098 183.318 21.098C184.401 21.098 185.628 19.8896 185.628 19.8896C185.628 19.8896 177.335 13.8962 176.589 13.3726C175.843 12.8489 172.86 10.3839 168.064 9.23996C164.311 8.28133 158.047 8.39411 157.614 8.39411H150.027L150.332 8.91773H156.957C158.328 8.93384 163.613 8.99829 167.639 11.1733Z" fill="white"/>
<path d="M197.681 11.0928C196.663 10.9156 195.315 10.8269 195.315 10.8269L193.479 11.3506L192.428 10.4725C192.428 10.4725 194.618 10.6417 195.219 10.7383C195.74 10.7383 195.572 10.4725 195.299 9.94081C195.035 9.41718 194.433 9.41718 194.433 9.41718H188.923C188.923 9.41718 187.937 9.42524 186.806 9.1594C185.667 8.89356 185.218 8.03965 185.218 8.03965C184.777 9.05468 186.525 10.2389 186.525 10.2389L191.979 14.1701C192.685 14.6131 193.286 14.2587 193.286 14.2587C193.286 14.2587 194.69 13.5498 195.476 13.3806C196.181 13.2114 198.355 13.1148 198.619 13.2114C199.237 13.3 199.927 13.9203 199.927 13.9203C200.296 11.4472 198.716 11.2861 197.681 11.0928ZM168.721 2.94843C172.523 4.62402 177.96 8.70828 178.746 9.28829C179.548 9.8683 187.376 15.4993 187.376 15.4993C187.376 15.4993 188.603 16.3773 189.741 16.3773C190.88 16.3773 192.003 15.2254 192.003 15.2254C192.003 15.2254 180.936 7.25019 180.142 6.67018C179.34 6.09822 175.675 2.9887 168.85 1.18422C164.182 -0.0563648 156.154 2.53871e-05 155.224 2.53871e-05H145.207L145.52 0.531704H154.703C157.012 0.531704 163.693 0.725042 168.721 2.94843Z" fill="white"/>
<path d="M168.136 7.04868C164.03 4.98641 158.969 4.72863 156.026 4.72863H147.926L147.621 4.20501H156.427C157.381 4.20501 164.046 4.1325 168.465 5.13947C173.557 6.2995 177.936 9.65874 178.393 9.97291C178.826 10.279 188.875 17.5211 188.875 17.5211C188.875 17.5211 187.729 18.7053 186.493 18.7053C185.363 18.7053 184.136 17.8272 184.136 17.8272C184.136 17.8272 177.599 13.1146 176.966 12.6635C176.332 12.2124 171.961 8.96594 168.136 7.04868Z" fill="white"/>
<path d="M21.0522 30.4506C21.0522 30.4506 20.4347 30.3137 19.6968 30.3137C18.0448 30.3137 16.8177 31.0467 16.4729 32.1584C16.4007 32.3679 16.3766 32.827 16.3766 33.0687C16.3766 34.4785 17.355 35.2679 18.558 35.2679C18.7826 35.2679 19.1675 35.2115 19.4883 35.0907C20.3465 34.7685 21.0522 34.1885 21.0522 33.3023V30.4506ZM22.191 36.7341C22.0788 36.7341 21.5976 36.7582 21.3971 36.5327C21.2046 36.3555 21.2046 36.0816 21.2046 35.8641V35.1552C20.4828 36.2266 19.2558 36.9596 17.4272 36.9113C14.5481 36.8307 13.9065 34.559 13.9065 33.3023C13.9065 32.8593 13.9466 32.0134 14.6042 31.1112C15.6227 29.6692 17.74 29.202 19.6327 29.202C20.4427 29.202 21.0522 29.3228 21.0522 29.3228V28.0581C21.0522 27.6069 21.0522 26.8416 20.6031 26.3019C20.2181 25.8508 19.5044 25.5124 18.2452 25.5124C16.2804 25.5124 14.9892 26.6241 14.9892 26.6241L15.2218 25.1258C15.2218 25.1258 16.5531 24.2155 18.6944 24.2155C20.4828 24.2155 21.7179 24.7069 22.4397 25.4399C23.2737 26.31 23.4822 27.1155 23.4822 28.7267V36.7341H22.191ZM30.1387 25.8991C28.0696 26.2938 27.8451 27.9372 27.8451 29.0892V36.7341H25.415V25.8024C25.415 24.7471 24.7253 24.5296 24.7253 24.5296H27.1233C27.6526 24.5296 27.837 24.8277 27.837 25.158V25.8266C27.9092 25.6011 28.7834 24.441 30.3874 24.3846C30.9087 24.3605 31.5101 24.4088 31.839 24.6102L32.1598 26.1488C31.7989 25.9475 31.1252 25.7058 30.1387 25.8991ZM41.7916 36.7341C41.7114 36.7341 41.2062 36.7582 40.9816 36.5327C40.8052 36.3555 40.8052 36.0171 40.8052 35.8641V35.1552C40.1476 36.2266 38.9686 36.9113 37.3486 36.9113C36.0815 36.9113 35.2153 36.6213 34.4695 35.7996C33.6755 34.9135 33.475 33.8098 33.475 32.3195V25.6172C33.475 24.7552 32.7292 24.5216 32.7532 24.5296H35.0148C35.5762 24.5296 35.9131 24.8116 35.9131 25.2385V32.5934C35.9131 34.7685 36.5547 35.3888 38.0704 35.3888C39.3215 35.3888 40.6769 34.5429 40.6769 33.2459V24.5458H43.0828V36.7421L41.7916 36.7341ZM75.0261 36.7341C74.5208 36.7341 74.2161 36.5166 74.2161 35.9043V21.5087C74.2161 20.5984 73.5183 20.2521 73.5183 20.2521H75.8682C76.5659 20.2521 76.8787 20.5904 76.8787 21.0979V36.7421H75.0181L75.0261 36.7341ZM108.1 25.5527C105.654 25.5286 105.221 28.0581 105.221 30.7648C105.221 34.124 106.063 35.7352 108.1 35.7352C109.897 35.7352 110.739 33.6568 110.739 30.7648C110.739 28.4044 110.514 25.5769 108.1 25.5527ZM108.052 36.9194C104.082 36.8952 102.655 34.4221 102.655 30.7084C102.655 27.3169 104.082 24.2557 108.052 24.2799C112.07 24.3041 113.297 27.3572 113.297 30.7084C113.305 34.1321 111.372 36.9435 108.052 36.9194ZM144.342 35.8479C143.484 36.581 142.345 36.9435 141.07 36.9596H140.942C139.041 36.9596 137.998 36.4441 137.541 36.1863L137.196 34.7363C137.196 34.7363 138.856 35.8318 140.589 35.8318C142.257 35.8318 143.211 34.9296 143.099 33.4393C142.93 31.0628 137.453 31.6348 137.453 27.6955C137.453 25.5366 139.201 24.4008 141.359 24.3685H141.495C143.716 24.3685 144.534 25.1499 144.534 25.1499L144.871 26.5033C144.871 26.5033 143.917 25.5608 142.016 25.5608C139.971 25.5608 139.771 27.2122 139.811 27.6633C139.939 28.8475 140.837 29.1295 142.449 29.8384C144.125 30.5553 145.449 31.4898 145.449 33.2782C145.449 34.414 145.016 35.284 144.358 35.8479H144.342ZM147.63 36.7341C147.181 36.7341 146.94 36.5005 146.94 36.0977V25.6333C146.94 24.8277 146.179 24.5377 146.179 24.5377H148.657C149.154 24.5377 149.346 24.8035 149.346 25.2627V36.7341H147.63ZM81.0089 24.5377C81.4741 24.5377 81.7066 24.7633 81.7066 25.166V26.1247C82.3723 25.0452 83.5512 24.3605 85.1632 24.3605C86.4304 24.3605 87.2965 24.6505 88.0424 25.4722C88.8363 26.3664 89.0368 27.4619 89.0368 28.9603V36.7502H87.5852C86.9677 36.7502 86.6068 36.3313 86.6068 35.7432V28.6945C86.6068 26.5194 85.9572 25.8991 84.4575 25.8991C83.2064 25.8991 81.843 26.745 81.843 28.05V36.7502H79.437V25.6091C79.437 24.7471 78.7714 24.5538 78.7714 24.5538H81.0169L81.0089 24.5377ZM158.072 30.4506C158.072 30.4506 157.454 30.3137 156.709 30.3137C155.057 30.3137 153.83 31.0467 153.485 32.1584C153.412 32.3679 153.396 32.827 153.396 33.0687C153.396 34.4785 154.367 35.2679 155.578 35.2679C155.802 35.2679 156.195 35.2115 156.508 35.0907C157.366 34.7685 158.072 34.1885 158.072 33.3023V30.4506ZM159.211 36.7341C159.091 36.7341 158.625 36.7582 158.409 36.5327C158.232 36.3555 158.232 36.0816 158.232 35.8641V35.1552C157.503 36.2266 156.276 36.9596 154.439 36.9113C151.56 36.8307 150.926 34.559 150.926 33.3023C150.926 32.8593 150.958 32.0134 151.632 31.1112C152.643 29.6692 154.76 29.202 156.644 29.202C157.463 29.202 158.08 29.3228 158.08 29.3228V28.0581C158.08 27.6069 158.152 26.898 157.647 26.2938C157.278 25.8266 156.508 25.4963 155.201 25.5124C152.955 25.5527 152.025 26.6241 152.025 26.6241L152.266 25.1258C152.266 25.1258 153.589 24.2155 155.73 24.2155C157.519 24.2155 158.746 24.7069 159.467 25.4399C160.31 26.31 160.51 27.1155 160.51 28.7267V36.7341H159.211ZM52.4581 28.6461C52.4581 27.9533 52.3699 26.9383 51.8165 26.3583C51.4316 25.9475 50.822 25.6655 49.9559 25.6655C47.598 25.6655 47.3254 28.8153 47.3254 30.515V30.6923C47.3494 33.0929 48.0311 35.4774 50.004 35.4774C51.0707 35.4774 51.8165 35.0585 52.4581 34.2529V28.6461ZM53.212 36.7341C52.7388 36.7341 52.5704 36.573 52.5704 36.1299V35.5257C51.6561 36.3393 50.7739 36.8871 49.4426 36.9032H49.3945C45.9219 36.9032 44.7189 33.9629 44.7189 30.6923C44.7189 28.2433 45.6572 24.2638 49.5148 24.2638C51.8245 24.2638 52.4661 25.6655 52.4661 25.6655V21.5087C52.4661 20.6387 51.7523 20.1876 51.7523 20.1876H53.637C54.3588 20.1876 54.8961 20.6951 54.8961 21.2429V36.7341H53.212ZM63.7982 30.4506C63.7982 30.4506 63.1887 30.3137 62.4429 30.3137C60.7908 30.3137 59.5637 31.0467 59.2189 32.1584C59.1467 32.3679 59.1226 32.827 59.1226 33.0687C59.1226 34.4785 60.093 35.2679 61.304 35.2679C61.5286 35.2679 61.9216 35.2115 62.2343 35.0907C63.0925 34.7685 63.7982 34.1885 63.7982 33.3023V30.4506ZM64.929 36.7341C64.8167 36.7341 64.3356 36.7582 64.1351 36.5327C63.9506 36.3555 63.9506 36.0816 63.9506 35.8641V35.1552C63.2288 36.2266 62.0018 36.9596 60.1652 36.9113C57.2861 36.8307 56.6445 34.559 56.6445 33.3023C56.6445 32.8593 56.6846 32.0134 57.3502 31.1112C58.3688 29.6692 60.478 29.202 62.3707 29.202C63.1887 29.202 63.7982 29.3228 63.7982 29.3228V28.0581C63.7982 27.6069 63.7982 26.8416 63.3491 26.3019C62.9722 25.8508 62.2504 25.5124 60.9993 25.5124C59.0344 25.5124 57.7352 26.6241 57.7352 26.6241L57.9758 25.1258C57.9758 25.1258 59.3071 24.2155 61.4404 24.2155C63.2368 24.2155 64.4639 24.7069 65.1857 25.4399C66.0197 26.31 66.2282 27.1155 66.2282 28.7267V36.7341H64.929ZM98.5324 28.6461C98.5324 27.9533 98.4441 26.9383 97.8988 26.3583C97.5219 25.9475 96.9043 25.6655 96.0382 25.6655C93.6803 25.6655 93.3996 28.8153 93.3996 30.515V30.6923C93.4237 33.0929 94.1054 35.4774 96.0863 35.4774C97.161 35.4774 97.8908 35.0585 98.5324 34.2529V28.6461ZM99.2943 36.7341C98.8211 36.7341 98.6446 36.573 98.6446 36.1299V35.5257C97.7384 36.3393 96.8482 36.8871 95.5169 36.9032H95.4527C92.0042 36.9032 90.8012 33.9629 90.8012 30.6923C90.8012 28.2433 91.7315 24.2638 95.5891 24.2638C97.8988 24.2638 98.5324 25.6655 98.5324 25.6655V21.5087C98.5324 20.6387 97.8186 20.1876 97.8186 20.1876H99.7113C100.433 20.1876 100.97 20.6951 100.97 21.2429V36.7341H99.2943ZM116.585 24.5377C117.05 24.5377 117.291 24.7633 117.291 25.166V26.1247C117.949 25.0452 119.127 24.3605 120.747 24.3605C122.015 24.3605 122.873 24.6505 123.627 25.4722C124.421 26.3664 124.629 27.4619 124.629 28.9603V36.7502H123.177C122.56 36.7502 122.207 36.3313 122.207 35.7432V28.6945C122.207 26.5194 121.557 25.8991 120.05 25.8991C118.799 25.8991 117.443 26.745 117.443 28.05V36.7502H115.029V25.6091C115.029 24.7471 114.364 24.5538 114.364 24.5538H116.601L116.585 24.5377ZM10.0249 36.8227C9.04644 36.9516 8.46098 36.9999 7.50662 36.9999C5.01243 36.9999 3.42449 36.2427 2.21349 35.0585C0.457134 33.3023 0 30.3781 0 28.5495C0 27.0753 0.248617 24.1752 2.60646 21.9438C3.69717 20.9207 5.38937 20.0426 7.93969 20.0426C10.2093 20.0426 11.3 20.6951 11.3 20.6951L11.7171 22.2015C11.6288 22.1613 10.4579 21.4846 8.50108 21.4846C4.49114 21.4846 2.81498 24.2477 2.81498 28.5495C2.81498 35.0585 5.9668 35.566 7.75523 35.566C9.02238 35.566 9.53565 35.3646 9.53565 35.3646V28.9039H8.14019C7.20186 28.9039 6.80087 29.0489 6.80087 29.0489L7.00136 27.7358H12.1501V36.3474C11.308 36.573 10.8589 36.7019 10.0168 36.8146H10.0249V36.8227ZM128.856 30.6439C128.856 30.6439 129.473 30.7728 130.219 30.7728C132.914 30.7728 133.531 29.4436 133.651 27.905C133.756 26.5355 133.387 25.166 131.278 25.4319C129.361 25.6736 128.848 26.9303 128.848 28.4931C128.856 29.79 128.864 30.6439 128.856 30.6439ZM132.489 24.2235C135.368 24.433 136.009 26.5839 136.009 27.8325C136.009 28.2836 135.969 29.1295 135.304 30.0237C134.285 31.4737 132.176 31.9329 130.291 31.9329C129.473 31.9329 128.864 31.8201 128.864 31.8201V32.9479C128.864 35.0826 129.994 35.6546 131.863 35.6304C133.956 35.6063 135.608 34.3093 135.608 34.3093L135.376 35.8077C135.376 35.8077 133.483 36.9194 131.342 36.9194C129.545 36.9194 128.198 36.4441 127.476 35.6949C126.586 34.7685 126.434 33.5198 126.434 31.9087V29.2422C126.434 26.9705 127.364 23.861 132.489 24.2235Z" fill="white"/>
</g>
<defs>
<clipPath id="clip0">
<rect width="200" height="37" fill="white"/>
</clipPath>
</defs>
</svg>
